id,name,code,capacity,active,room_type
facility_1,R-07,R-07,70,0,class
facility_2,R-08,R-08,70,0,class
facility_3,R-09,R-09,70,0,class
facility_4,R-10,R-10,70,0,class
facility_5,R-11,R-11,70,0,class
facility_6,R-12,R-12,70,0,class
facility_7,R-13,R-13,70,0,class
facility_8,R-14,R-14,30,0,class
facility_9,Lt-I2,Lt-I2,45,1,class
facility_10,Lt-I3,Lt-I3,40,1,class
facility_11,Lt-I4,Lt-I4,45,1,class
facility_12,Lt-II1,Lt-II1,45,1,class
facility_13,Lt-I1,Lt-I1,45,0,class
facility_14,Labkom-1,Labkom-1,23,1,lab
facility_15,Labkom-2,Labkom-2,20,1,lab
facility_34,Lt-II7,Lt-II7,45,1,class
facility_17,Lab-Ing-1,Lab-Ing-1,40,0,lab
facility_18,Lab-Ing-2,Lab-Ing-2,40,0,lab
facility_19,Lab-Ing-3,Lab-Ing-3,32,0,lab
facility_20,Lt-II4,Lt-II4,45,1,class
facility_21,Lt-I5,Lt-I5,45,1,class
facility_22,Lt-I6,Lt-I6,40,1,class
facility_23,Lt-I7,Lt-I7,40,1,class
facility_24,Lt-I8,Lt-I8,45,1,class
facility_25,Lt-III1,Lt-III1,45,1,class
facility_26,Lt-III2,Lt-III2,45,1,class
facility_27,Lt-III3,Lt-III3,40,1,class
facility_28,Lt-III4,Lt-III4,45,1,class
facility_33,Lt-II5,Lt-II5,45,1,class
facility_31,Lt-II6,Lt-II6,45,1,class
facility_32,Lt-II8,Lt-II8,40,0,class
facility_35,Lt-II2,Lt-II2,45,1,class
facility_36,Lt-II3,Lt-II3,40,1,class
facility_37,Lt-I9,Lt-I9,50,0,class
facility_38,Lt-III5,Lt-III5,45,1,class
facility_39,Lt-III6,Lt-III6,45,1,class
facility_40,Lab KRS,Lab KRS,20,0,lab
facility_46,Lt-III7,Lt-III7,40,1,class
facility_41,TUK 1,TUK 1,20,0,lab
facility_42,TUK 2,TUK 2,20,0,lab
facility_43,TUK 3,TUK 3,20,0,lab
facility_44,TUK 4,TUK 4,20,0,lab
facility_45,TUK 5,TUK 5,20,0,lab
facility_47,Lt-III8,Lt-III8,40,1,class
facility_48,Lt-III9,Lt-III9,40,1,class
facility_49,Lt-III-10,Lt-III-10,45,1,class
facility_50,Lab-3MAR,Lab-3MAR,25,1,lab
facility_51,Lab-3KEU,Lab-3KEU,25,0,lab
facility_52,Lab-3PRO,Lab-3PRO,25,0,lab
facility_53,Lab-3PI,Lab-3PI,25,0,lab
facility_54,Lab-3SDM,Lab-3SDM,25,0,lab
facility_55,Lab-3UM,Lab-3UM,30,1,lab
facility_56,R. Gudang ,R. Gudang ,359,0,class
facility_57,Labkom-3 ,Labkom-3 ,22,1,lab
facility_58,Lab-Multimedia-1,Lab-Multimedia-1,22,1,lab
facility_59,Lab-Multimedia-2,Lab-Multimedia-2,25,1,lab
facility_60,Lab-Multimedia-3,Lab-Multimedia-3,24,1,lab
facility_64,R.Project,R.Project,509,0,class
facility_65,R.Project 1,R.Project 1,509,1,class
facility_66,R.Project 2,R.Project 2,509,0,class
facility_67,Magang Industri,Magang Industri,609,1,class
facility_68,Magang Industri 1,Magang Industri 1,609,1,class
facility_69,Auditorium Lt.4,Auditorium Lt.4,50,1,extra
facility_61,Lab-MLIE-1,Lab-MLIE-1,25,0,lab
facility_62,Lab-MLIE-2,Lab-MLIE-2,25,0,lab
facility_70,Lt-I 10,Lt-I 10,45,1,class
facility_71,Lt-I 11,Lt-I 11,60,1,class
facility_72,Lt-I 12,Lt-I 12,45,1,class
facility_73,Lt-III-11,Lt-III-11,45,1,class
facility_74,Lt-III-12,Lt-III-12,45,1,class
facility_75,Lt-III-13,Lt-III-13,45,1,class
facility_76,Lt-III-14,Lt-III-14,45,1,class
facility_77,Lt-III-15,Lt-III-15,45,1,class
facility_78,Lab Conveyor,Lab Conveyor,30,1,lab
facility_79,Lab Pergudangan,Lab Pergudangan,30,1,lab
facility_80,Lab-3PIWAR,Lab-3PIWAR,25,1,lab